<?xml version="1.0" encoding="UTF-8" standalone="no"?>
<!-- Created with Inkscape (http://www.inkscape.org/) -->

<svg
   version="1.1"
   id="svg2"
   width="413.45535"
   height="313.00061"
   viewBox="0 0 413.45534 313.00061"
   sodipodi:docname="lovgivingsprosess.svg"
   inkscape:version="1.2.2 (b0a8486541, 2022-12-01)"
   xmlns:inkscape="http://www.inkscape.org/namespaces/inkscape"
   xmlns:sodipodi="http://sodipodi.sourceforge.net/DTD/sodipodi-0.dtd"
   xmlns="http://www.w3.org/2000/svg"
   xmlns:svg="http://www.w3.org/2000/svg">
  <defs
     id="defs6">
    <marker
       style="overflow:visible"
       id="Arrow1"
       refX="0"
       refY="0"
       orient="auto-start-reverse"
       inkscape:stockid="Arrow1"
       markerWidth="4.0606604"
       markerHeight="6.7071066"
       viewBox="0 0 4.0606602 6.7071068"
       inkscape:isstock="true"
       inkscape:collect="always"
       preserveAspectRatio="xMidYMid">
      <path
         style="fill:none;stroke:context-stroke;stroke-width:1;stroke-linecap:butt"
         d="M 3,-3 0,0 3,3"
         id="path5057"
         transform="rotate(180,0.125,0)"
         sodipodi:nodetypes="ccc" />
    </marker>
  </defs>
  <sodipodi:namedview
     id="namedview4"
     pagecolor="#ffffff"
     bordercolor="#666666"
     borderopacity="1.0"
     inkscape:showpageshadow="2"
     inkscape:pageopacity="0.0"
     inkscape:pagecheckerboard="0"
     inkscape:deskcolor="#d1d1d1"
     showgrid="false"
     inkscape:zoom="1.3609636"
     inkscape:cx="-33.799581"
     inkscape:cy="141.81129"
     inkscape:window-width="1366"
     inkscape:window-height="709"
     inkscape:window-x="0"
     inkscape:window-y="0"
     inkscape:window-maximized="1"
     inkscape:current-layer="g8" />
  <g
     inkscape:groupmode="layer"
     inkscape:label="Image"
     id="g8"
     transform="translate(21.665429,10.087276)">
    <circle
       style="fill:none;stroke:#000000;stroke-width:1.89;stroke-linejoin:round;stroke-miterlimit:2"
       id="path291"
       cx="179.76982"
       cy="151.45477"
       r="83.101257" />
    <path
       style="fill:none;stroke:#000000;stroke-width:1.89;stroke-linejoin:round;stroke-miterlimit:2;marker-end:url(#Arrow1)"
       id="path295"
       sodipodi:type="arc"
       sodipodi:cx="178.80205"
       sodipodi:cy="152.42278"
       sodipodi:rx="112.96688"
       sodipodi:ry="112.96688"
       sodipodi:start="0"
       sodipodi:end="0.61086524"
       sodipodi:arc-type="arc"
       d="M 291.76893,152.42278 A 112.96688,112.96688 0 0 1 271.3391,217.21792"
       sodipodi:open="true" />
    <path
       style="fill:none;stroke:#000000;stroke-width:1.89;stroke-linejoin:round;stroke-miterlimit:2;marker-end:url(#Arrow1)"
       id="path1226"
       sodipodi:type="arc"
       sodipodi:cx="178.80205"
       sodipodi:cy="152.42278"
       sodipodi:rx="112.96688"
       sodipodi:ry="112.96688"
       sodipodi:start="0.6981317"
       sodipodi:end="1.3089969"
       sodipodi:arc-type="arc"
       d="M 265.3397,225.03649 A 112.96688,112.96688 0 0 1 208.04003,261.5404"
       sodipodi:open="true" />
    <path
       style="fill:none;stroke:#000000;stroke-width:1.89;stroke-linejoin:round;stroke-miterlimit:2;marker-end:url(#Arrow1)"
       id="path1360"
       sodipodi:type="arc"
       sodipodi:cx="178.80205"
       sodipodi:cy="152.42278"
       sodipodi:rx="112.96688"
       sodipodi:ry="112.96688"
       sodipodi:start="1.3962634"
       sodipodi:end="2.0071286"
       sodipodi:arc-type="arc"
       d="m 198.41854,263.67344 a 112.96688,112.96688 0 0 1 -67.35835,-8.8679"
       sodipodi:open="true" />
    <path
       style="fill:none;stroke:#000000;stroke-width:1.89;stroke-linejoin:round;stroke-miterlimit:2;marker-end:url(#Arrow1)"
       id="path1362"
       sodipodi:type="arc"
       sodipodi:cx="178.80205"
       sodipodi:cy="152.42278"
       sodipodi:rx="112.96688"
       sodipodi:ry="112.96688"
       sodipodi:start="2.0943951"
       sodipodi:end="2.7052603"
       sodipodi:arc-type="arc"
       d="M 122.31861,250.25496 A 112.96688,112.96688 0 0 1 76.419286,200.16465"
       sodipodi:open="true" />
    <path
       style="fill:none;stroke:#000000;stroke-width:1.89;stroke-linejoin:round;stroke-miterlimit:2;marker-end:url(#Arrow1)"
       id="path1364"
       sodipodi:type="arc"
       sodipodi:cx="178.80205"
       sodipodi:cy="152.42278"
       sodipodi:rx="112.96688"
       sodipodi:ry="112.96688"
       sodipodi:start="2.7925268"
       sodipodi:end="3.403392"
       sodipodi:arc-type="arc"
       d="M 72.647904,191.05972 A 112.96688,112.96688 0 0 1 69.684419,123.1848"
       sodipodi:open="true" />
    <path
       style="fill:none;stroke:#000000;stroke-width:1.89;stroke-linejoin:round;stroke-miterlimit:2;marker-end:url(#Arrow1)"
       id="path1366"
       sodipodi:type="arc"
       sodipodi:cx="178.80205"
       sodipodi:cy="152.42278"
       sodipodi:rx="112.96688"
       sodipodi:ry="112.96688"
       sodipodi:start="3.4906585"
       sodipodi:end="4.1015237"
       sodipodi:arc-type="arc"
       d="M 72.647903,113.78583 A 112.96688,112.96688 0 0 1 114.0069,59.885727"
       sodipodi:open="true" />
    <path
       style="fill:none;stroke:#000000;stroke-width:1.89;stroke-linejoin:round;stroke-miterlimit:2;marker-end:url(#Arrow1)"
       id="path1368"
       sodipodi:type="arc"
       sodipodi:cx="178.80205"
       sodipodi:cy="152.42278"
       sodipodi:rx="112.96688"
       sodipodi:ry="112.96688"
       sodipodi:start="4.1887902"
       sodipodi:end="4.7996554"
       sodipodi:arc-type="arc"
       d="m 122.31861,54.590587 a 112.96688,112.96688 0 0 1 66.32915,-14.70482"
       sodipodi:open="true" />
    <path
       style="fill:none;stroke:#000000;stroke-width:1.89;stroke-linejoin:round;stroke-miterlimit:2;marker-end:url(#Arrow1)"
       id="path1370"
       sodipodi:type="arc"
       sodipodi:cx="178.80205"
       sodipodi:cy="152.42278"
       sodipodi:rx="112.96688"
       sodipodi:ry="112.96688"
       sodipodi:start="4.8869219"
       sodipodi:end="5.4977871"
       sodipodi:arc-type="arc"
       d="m 198.41854,41.172115 a 112.96688,112.96688 0 0 1 60.26315,31.371009"
       sodipodi:open="true" />
    <path
       style="fill:none;stroke:#000000;stroke-width:1.89;stroke-linejoin:round;stroke-miterlimit:2;marker-end:url(#Arrow1)"
       id="path1372"
       sodipodi:type="arc"
       sodipodi:cx="178.80205"
       sodipodi:cy="152.42278"
       sodipodi:rx="112.96688"
       sodipodi:ry="112.96688"
       sodipodi:start="5.5850536"
       sodipodi:end="6.1959188"
       sodipodi:arc-type="arc"
       d="m 265.3397,79.809063 a 112.96688,112.96688 0 0 1 25.99936,62.767997"
       sodipodi:open="true" />
    <text
       xml:space="preserve"
       style="font-style:normal;font-variant:normal;font-weight:normal;font-stretch:normal;font-size:13.3333px;line-height:125%;font-family:Crimson;-inkscape-font-specification:'Crimson, Normal';font-variant-ligatures:normal;font-variant-caps:normal;font-variant-numeric:normal;font-variant-east-asian:normal;letter-spacing:0px;word-spacing:0px;fill:#000000;fill-opacity:1;stroke:#000000;stroke-width:0;stroke-linecap:butt;stroke-linejoin:miter;stroke-dasharray:none;stroke-opacity:1"
       x="144.50307"
       y="-1.0508406"
       id="text578"><tspan
         sodipodi:role="line"
         id="tspan576"
         x="144.50307"
         y="-1.0508406">Fagdepartementet</tspan><tspan
         sodipodi:role="line"
         x="144.50307"
         y="15.615784"
         id="tspan580">vurderer behov</tspan><tspan
         sodipodi:role="line"
         x="144.50307"
         y="32.28241"
         id="tspan632">og utredningsform</tspan></text>
    <text
       xml:space="preserve"
       style="font-style:normal;font-variant:normal;font-weight:normal;font-stretch:normal;font-size:13.3333px;line-height:125%;font-family:Crimson;-inkscape-font-specification:'Crimson, Normal';font-variant-ligatures:normal;font-variant-caps:normal;font-variant-numeric:normal;font-variant-east-asian:normal;letter-spacing:0px;word-spacing:0px;fill:#000000;fill-opacity:1;stroke:#000000;stroke-width:0;stroke-linecap:butt;stroke-linejoin:miter;stroke-dasharray:none;stroke-opacity:1"
       x="271.46448"
       y="59.363346"
       id="text584"><tspan
         sodipodi:role="line"
         id="tspan582"
         x="271.46448"
         y="59.363346">Eventuell utvalgs-</tspan><tspan
         sodipodi:role="line"
         x="271.46448"
         y="76.029968"
         id="tspan586">behandling</tspan></text>
    <text
       xml:space="preserve"
       style="font-style:normal;font-variant:normal;font-weight:normal;font-stretch:normal;font-size:13.3333px;line-height:125%;font-family:Crimson;-inkscape-font-specification:'Crimson, Normal';font-variant-ligatures:normal;font-variant-caps:normal;font-variant-numeric:normal;font-variant-east-asian:normal;letter-spacing:0px;word-spacing:0px;fill:#000000;fill-opacity:1;stroke:#000000;stroke-width:0;stroke-linecap:butt;stroke-linejoin:miter;stroke-dasharray:none;stroke-opacity:1"
       x="298.11829"
       y="122.10015"
       id="text590"><tspan
         sodipodi:role="line"
         id="tspan588"
         x="298.11829"
         y="122.10015">Fagdepartementet</tspan><tspan
         sodipodi:role="line"
         x="298.11829"
         y="138.76677"
         id="tspan592">foreslår remiss-</tspan><tspan
         sodipodi:role="line"
         x="298.11829"
         y="155.4334"
         id="tspan594">behandling,</tspan><tspan
         sodipodi:role="line"
         x="298.11829"
         y="172.10002"
         id="tspan596">utarbeider</tspan><tspan
         sodipodi:role="line"
         x="298.11829"
         y="188.76665"
         id="tspan598">Ot. prp.</tspan></text>
    <text
       xml:space="preserve"
       style="font-style:normal;font-variant:normal;font-weight:normal;font-stretch:normal;font-size:13.3333px;line-height:125%;font-family:Crimson;-inkscape-font-specification:'Crimson, Normal';font-variant-ligatures:normal;font-variant-caps:normal;font-variant-numeric:normal;font-variant-east-asian:normal;letter-spacing:0px;word-spacing:0px;fill:#000000;fill-opacity:1;stroke:#000000;stroke-width:0;stroke-linecap:butt;stroke-linejoin:miter;stroke-dasharray:none;stroke-opacity:1"
       x="282.97864"
       y="229.64113"
       id="text602"><tspan
         sodipodi:role="line"
         id="tspan600"
         x="282.97864"
         y="229.64113">Behandling i</tspan><tspan
         sodipodi:role="line"
         x="282.97864"
         y="246.30775"
         id="tspan604">regjeringen</tspan></text>
    <text
       xml:space="preserve"
       style="font-style:normal;font-variant:normal;font-weight:normal;font-stretch:normal;font-size:13.3333px;line-height:125%;font-family:Crimson;-inkscape-font-specification:'Crimson, Normal';font-variant-ligatures:normal;font-variant-caps:normal;font-variant-numeric:normal;font-variant-east-asian:normal;letter-spacing:0px;word-spacing:0px;fill:#000000;fill-opacity:1;stroke:#000000;stroke-width:0;stroke-linecap:butt;stroke-linejoin:miter;stroke-dasharray:none;stroke-opacity:1"
       x="130.73805"
       y="283.29062"
       id="text608"><tspan
         sodipodi:role="line"
         id="tspan606"
         x="130.73805"
         y="283.29062">Behandling i Stortinget</tspan><tspan
         sodipodi:role="line"
         x="130.73805"
         y="299.95724"
         id="tspan610">og Stortingets fagkomiteer</tspan></text>
    <text
       xml:space="preserve"
       style="font-style:normal;font-variant:normal;font-weight:normal;font-stretch:normal;font-size:13.3333px;line-height:125%;font-family:Crimson;-inkscape-font-specification:'Crimson, Normal';font-variant-ligatures:normal;font-variant-caps:normal;font-variant-numeric:normal;font-variant-east-asian:normal;letter-spacing:0px;word-spacing:0px;fill:#000000;fill-opacity:1;stroke:#000000;stroke-width:0;stroke-linecap:butt;stroke-linejoin:miter;stroke-dasharray:none;stroke-opacity:1"
       x="-15.824808"
       y="205.23116"
       id="text614"><tspan
         sodipodi:role="line"
         id="tspan612"
         x="-15.824808"
         y="205.23116">Informasjon om</tspan><tspan
         sodipodi:role="line"
         x="-15.824808"
         y="221.89778"
         id="tspan616">regelverket</tspan></text>
    <text
       xml:space="preserve"
       style="font-style:normal;font-variant:normal;font-weight:normal;font-stretch:normal;font-size:13.3333px;line-height:125%;font-family:Crimson;-inkscape-font-specification:'Crimson, Normal';font-variant-ligatures:normal;font-variant-caps:normal;font-variant-numeric:normal;font-variant-east-asian:normal;letter-spacing:0px;word-spacing:0px;fill:#000000;fill-opacity:1;stroke:#000000;stroke-width:0;stroke-linecap:butt;stroke-linejoin:miter;stroke-dasharray:none;stroke-opacity:1"
       x="-21.652409"
       y="122.10015"
       id="text620"><tspan
         sodipodi:role="line"
         id="tspan618"
         x="-21.652409"
         y="122.10015">Observasjon og</tspan><tspan
         sodipodi:role="line"
         x="-21.652409"
         y="138.76677"
         id="tspan622">evaluering av</tspan><tspan
         sodipodi:role="line"
         x="-21.652409"
         y="155.4334"
         id="tspan624">virkningene</tspan></text>
    <text
       xml:space="preserve"
       style="font-style:normal;font-variant:normal;font-weight:normal;font-stretch:normal;font-size:13.3333px;line-height:125%;font-family:Crimson;-inkscape-font-specification:'Crimson, Normal';font-variant-ligatures:normal;font-variant-caps:normal;font-variant-numeric:normal;font-variant-east-asian:normal;letter-spacing:0px;word-spacing:0px;fill:#000000;fill-opacity:1;stroke:#000000;stroke-width:0;stroke-linecap:butt;stroke-linejoin:miter;stroke-dasharray:none;stroke-opacity:1"
       x="8.7154713"
       y="37.812099"
       id="text628"><tspan
         sodipodi:role="line"
         id="tspan626"
         x="8.7154713"
         y="37.812099">Erfaringstilbake-</tspan><tspan
         sodipodi:role="line"
         x="8.7154713"
         y="54.478725"
         id="tspan630">foring og impulser</tspan></text>
    <text
       xml:space="preserve"
       style="font-style:normal;font-variant:normal;font-weight:normal;font-stretch:normal;font-size:13.3333px;line-height:125%;font-family:Crimson;-inkscape-font-specification:'Crimson, Normal';font-variant-ligatures:normal;font-variant-caps:normal;font-variant-numeric:normal;font-variant-east-asian:normal;letter-spacing:0px;word-spacing:0px;fill:#000000;fill-opacity:1;stroke:#000000;stroke-width:0;stroke-linecap:butt;stroke-linejoin:miter;stroke-dasharray:none;stroke-opacity:1"
       x="35.048359"
       y="252.74567"
       id="text1123"><tspan
         sodipodi:role="line"
         id="tspan1121"
         x="35.048359"
         y="252.74567">Iverksetting</tspan></text>
  </g>
</svg>
