<?xml version="1.0" encoding="UTF-8" standalone="no"?>
<!-- Created with Inkscape (http://www.inkscape.org/) -->

<svg
   version="1.1"
   id="svg2"
   width="217.98701"
   height="231.80106"
   viewBox="0 0 217.98701 231.80106"
   sodipodi:docname="mulige-virkninger-forbrukerne.svg"
   inkscape:version="1.2.2 (b0a8486541, 2022-12-01)"
   inkscape:export-filename="mulige-virkninger.png"
   inkscape:export-xdpi="96"
   inkscape:export-ydpi="96"
   xmlns:inkscape="http://www.inkscape.org/namespaces/inkscape"
   xmlns:sodipodi="http://sodipodi.sourceforge.net/DTD/sodipodi-0.dtd"
   xmlns="http://www.w3.org/2000/svg"
   xmlns:svg="http://www.w3.org/2000/svg">
  <defs
     id="defs6" />
  <sodipodi:namedview
     id="namedview4"
     pagecolor="#ffffff"
     bordercolor="#666666"
     borderopacity="1.0"
     inkscape:showpageshadow="2"
     inkscape:pageopacity="0.0"
     inkscape:pagecheckerboard="0"
     inkscape:deskcolor="#d1d1d1"
     showgrid="false"
     inkscape:zoom="0.9736366"
     inkscape:cx="-3.0812317"
     inkscape:cy="25.676931"
     inkscape:window-width="1366"
     inkscape:window-height="709"
     inkscape:window-x="0"
     inkscape:window-y="0"
     inkscape:window-maximized="1"
     inkscape:current-layer="g8" />
  <g
     inkscape:groupmode="layer"
     inkscape:label="Image"
     id="g8"
     transform="translate(-352.52406,-220.67857)">
    <rect
       style="fill:none;stroke:#000000;stroke-width:1.51181;stroke-linejoin:round;stroke-miterlimit:2"
       id="rect293"
       width="216.4752"
       height="201.35193"
       x="353.27997"
       y="250.3718" />
    <text
       xml:space="preserve"
       style="font-style:normal;font-variant:normal;font-weight:normal;font-stretch:normal;font-size:16px;line-height:125%;font-family:Crimson;-inkscape-font-specification:'Crimson, Normal';font-variant-ligatures:normal;font-variant-caps:normal;font-variant-numeric:normal;font-variant-east-asian:normal;letter-spacing:0px;word-spacing:0px;fill:#000000;fill-opacity:1;stroke:#000000;stroke-width:0.133333;stroke-linecap:butt;stroke-linejoin:miter;stroke-dasharray:none;stroke-opacity:1"
       x="359.5744"
       y="231.58899"
       id="text965"><tspan
         sodipodi:role="line"
         id="tspan963"
         x="359.5744"
         y="231.58899">Forbrukerne</tspan></text>
    <text
       xml:space="preserve"
       style="font-style:normal;font-variant:normal;font-weight:normal;font-stretch:normal;font-size:16px;line-height:125%;font-family:Crimson;-inkscape-font-specification:'Crimson, Normal';font-variant-ligatures:normal;font-variant-caps:normal;font-variant-numeric:normal;font-variant-east-asian:normal;letter-spacing:0px;word-spacing:0px;fill:#000000;fill-opacity:1;stroke:#000000;stroke-width:0.133333;stroke-linecap:butt;stroke-linejoin:miter;stroke-dasharray:none;stroke-opacity:1"
       x="367.8765"
       y="324.90314"
       id="text1674"><tspan
         sodipodi:role="line"
         id="tspan1672"
         x="367.8765"
         y="324.90314">økt lovkunnskap</tspan><tspan
         sodipodi:role="line"
         x="367.8765"
         y="344.90314"
         id="tspan1676">generelt og særlig</tspan><tspan
         sodipodi:role="line"
         x="367.8765"
         y="364.90314"
         id="tspan1678">hos misfornøyde</tspan><tspan
         sodipodi:role="line"
         x="367.8765"
         y="384.90314"
         id="tspan1680">kjøpere (mål 6-8)</tspan><tspan
         sodipodi:role="line"
         x="367.8765"
         y="404.90314"
         id="tspan1682" /><tspan
         sodipodi:role="line"
         x="367.8765"
         y="424.90314"
         id="tspan1684">bruk av fragåelses-</tspan><tspan
         sodipodi:role="line"
         x="367.8765"
         y="444.90314"
         id="tspan1686">retten (mål 9 og 10)</tspan></text>
  </g>
</svg>
