<?xml version="1.0" encoding="UTF-8" standalone="no"?>
<!-- Created with Inkscape (http://www.inkscape.org/) -->

<svg
   width="198.54167mm"
   height="89.79483mm"
   viewBox="0 0 198.54167 89.79483"
   version="1.1"
   id="svg5"
   xml:space="preserve"
   inkscape:version="1.2.2 (b0a8486541, 2022-12-01)"
   sodipodi:docname="regneeksempel-lovkunnskap.svg"
   xmlns:inkscape="http://www.inkscape.org/namespaces/inkscape"
   xmlns:sodipodi="http://sodipodi.sourceforge.net/DTD/sodipodi-0.dtd"
   xmlns="http://www.w3.org/2000/svg"
   xmlns:svg="http://www.w3.org/2000/svg"><sodipodi:namedview
     id="namedview7"
     pagecolor="#ffffff"
     bordercolor="#666666"
     borderopacity="1.0"
     inkscape:showpageshadow="2"
     inkscape:pageopacity="0.0"
     inkscape:pagecheckerboard="0"
     inkscape:deskcolor="#d1d1d1"
     inkscape:document-units="mm"
     showgrid="false"
     inkscape:zoom="0.7994213"
     inkscape:cx="427.80947"
     inkscape:cy="257.6864"
     inkscape:window-width="1366"
     inkscape:window-height="709"
     inkscape:window-x="0"
     inkscape:window-y="0"
     inkscape:window-maximized="1"
     inkscape:current-layer="layer2" /><defs
     id="defs2" /><g
     inkscape:groupmode="layer"
     id="layer2"
     inkscape:label="background"
     transform="translate(0.13577066,-0.0831574)"><text
       xml:space="preserve"
       style="font-size:4.2333298px;line-height:125%;font-family:Crimson;-inkscape-font-specification:'Crimson, Normal';letter-spacing:0px;word-spacing:0px;fill:#000000;stroke:#000000;stroke-width:0.03527778;stroke-linecap:butt;stroke-linejoin:miter;stroke-opacity:1;stroke-dasharray:none;fill-opacity:1;font-weight:normal;font-style:normal;font-stretch:normal;font-variant:normal;font-variant-ligatures:normal;font-variant-caps:normal;font-variant-numeric:normal;font-variant-east-asian:normal"
       x="107.75304"
       y="33.593349"
       id="text1449"><tspan
         sodipodi:role="line"
         id="tspan1447"
         style="stroke-width:0.03527778;stroke-dasharray:none;fill:#000000;fill-opacity:1;-inkscape-font-specification:'Crimson, Normal';font-family:Crimson;font-weight:normal;font-style:normal;font-stretch:normal;font-variant:normal;font-size:4.2333298px;font-variant-ligatures:normal;font-variant-caps:normal;font-variant-numeric:normal;font-variant-east-asian:normal"
         x="107.75304"
         y="33.593349">9 %</tspan></text></g><g
     inkscape:label="Layer 1"
     inkscape:groupmode="layer"
     id="layer1"
     transform="translate(3.0107706,-75.08316)"><rect
       style="fill:none;stroke:#000000;stroke-width:0.5;stroke-linejoin:round;stroke-miterlimit:2;stroke-dasharray:none"
       id="rect1382"
       width="27.271542"
       height="11.771542"
       x="-2.7607706"
       y="127.11423" /><rect
       style="fill:none;stroke:#000000;stroke-width:0.5;stroke-linejoin:round;stroke-miterlimit:2;stroke-dasharray:2, 2;stroke-dashoffset:0"
       id="rect1384"
       width="143.70865"
       height="11.33364"
       x="24.958179"
       y="127.33318" /><rect
       style="fill:none;stroke:#000000;stroke-width:0.5;stroke-linejoin:round;stroke-miterlimit:2;stroke-dasharray:none;stroke-dashoffset:0"
       id="rect1940"
       width="15.20861"
       height="11.73986"
       x="100.38007"
       y="101.13007" /><rect
       style="fill:none;stroke:#000000;stroke-width:0.68919;stroke-linejoin:round;stroke-miterlimit:2;stroke-dasharray:2.75677, 2.75677;stroke-dashoffset:0"
       id="rect1942"
       width="52.59206"
       height="11.310809"
       x="116.06335"
       y="101.3446" /><rect
       style="fill:none;stroke:#000000;stroke-width:0.5;stroke-linejoin:round;stroke-miterlimit:2;stroke-dasharray:none;stroke-dashoffset:0"
       id="rect1944"
       width="28.405922"
       height="11.187174"
       x="116.12541"
       y="88.40641" /><rect
       style="fill:none;stroke:#000000;stroke-width:0.5;stroke-linejoin:round;stroke-miterlimit:2;stroke-dasharray:none;stroke-dashoffset:0"
       id="rect1946"
       width="23.396187"
       height="11.333687"
       x="145.03101"
       y="75.33316" /><rect
       style="fill:none;stroke:#000000;stroke-width:0.5;stroke-linejoin:round;stroke-miterlimit:2;stroke-dasharray:2, 2;stroke-dashoffset:0"
       id="rect2017"
       width="23.376854"
       height="11.314355"
       x="145.03101"
       y="88.342827" /><text
       xml:space="preserve"
       style="font-style:normal;font-variant:normal;font-weight:normal;font-stretch:normal;font-size:4.2333298px;line-height:125%;font-family:Crimson;-inkscape-font-specification:'Crimson, Normal';font-variant-ligatures:normal;font-variant-caps:normal;font-variant-numeric:normal;font-variant-east-asian:normal;letter-spacing:0px;word-spacing:0px;fill:#000000;stroke:#000000;stroke-width:0.03527778;stroke-linecap:butt;stroke-linejoin:miter;stroke-opacity:1;stroke-dasharray:none;fill-opacity:1"
       x="73.325508"
       y="79.160248"
       id="text15141"><tspan
         sodipodi:role="line"
         id="tspan1339"
         x="73.325508"
         y="79.160248">Andel som svarer til</tspan><tspan
         sodipodi:role="line"
         id="tspan1341"
         x="73.325508"
         y="84.451912">betingelsene</tspan></text><text
       xml:space="preserve"
       style="font-style:normal;font-variant:normal;font-weight:normal;font-stretch:normal;font-size:4.2333298px;line-height:125%;font-family:Crimson;-inkscape-font-specification:'Crimson, Normal';font-variant-ligatures:normal;font-variant-caps:normal;font-variant-numeric:normal;font-variant-east-asian:normal;letter-spacing:0px;word-spacing:0px;fill:#000000;stroke:#000000;stroke-width:0.03527778;stroke-linecap:butt;stroke-linejoin:miter;stroke-opacity:1;stroke-dasharray:none;fill-opacity:1"
       x="73.065056"
       y="92.960251"
       id="text15147"><tspan
         sodipodi:role="line"
         id="tspan1335"
         x="73.065056"
         y="92.960251">Kontaktet selger</tspan><tspan
         sodipodi:role="line"
         id="tspan1337"
         x="73.065056"
         y="98.251915">etter 10 dager:</tspan></text><text
       xml:space="preserve"
       style="font-style:normal;font-variant:normal;font-weight:normal;font-stretch:normal;font-size:4.2333298px;line-height:125%;font-family:Crimson;-inkscape-font-specification:'Crimson, Normal';font-variant-ligatures:normal;font-variant-caps:normal;font-variant-numeric:normal;font-variant-east-asian:normal;letter-spacing:0px;word-spacing:0px;fill:#000000;stroke:#000000;stroke-width:0.03527778;stroke-linecap:butt;stroke-linejoin:miter;stroke-opacity:1;stroke-dasharray:none;fill-opacity:1"
       x="73.058853"
       y="105.46025"
       id="text15203"><tspan
         sodipodi:role="line"
         id="tspan1331"
         x="73.058853"
         y="105.46025">Betalte innen</tspan><tspan
         sodipodi:role="line"
         id="tspan1333"
         x="73.058853"
         y="110.75191">10 dager +):</tspan></text><text
       xml:space="preserve"
       style="font-style:normal;font-variant:normal;font-weight:normal;font-stretch:normal;font-size:4.2333298px;line-height:125%;font-family:Crimson;-inkscape-font-specification:'Crimson, Normal';font-variant-ligatures:normal;font-variant-caps:normal;font-variant-numeric:normal;font-variant-east-asian:normal;letter-spacing:0px;word-spacing:0px;fill:#000000;stroke:#000000;stroke-width:0.03527778;stroke-linecap:butt;stroke-linejoin:miter;stroke-opacity:1;stroke-dasharray:none;fill-opacity:1"
       x="34.311291"
       y="135.33305"
       id="text15209"><tspan
         sodipodi:role="line"
         id="tspan1168"
         x="34.311291"
         y="135.33305">Har hørt om fristen: Ja eller i tvil 84 %</tspan></text><text
       xml:space="preserve"
       style="font-style:normal;font-variant:normal;font-weight:normal;font-stretch:normal;font-size:4.2333298px;line-height:125%;font-family:Crimson;-inkscape-font-specification:'Crimson, Normal';font-variant-ligatures:normal;font-variant-caps:normal;font-variant-numeric:normal;font-variant-east-asian:normal;letter-spacing:0px;word-spacing:0px;fill:#000000;stroke:#000000;stroke-width:0.03527778;stroke-linecap:butt;stroke-linejoin:miter;stroke-opacity:1;stroke-dasharray:none;fill-opacity:1"
       x="-1.0457612"
       y="131.46025"
       id="text15215"><tspan
         sodipodi:role="line"
         id="tspan1156"
         x="-1.0457612"
         y="131.46025">Kjenner ikke</tspan><tspan
         sodipodi:role="line"
         id="tspan1158"
         x="-1.0457612"
         y="136.75191">frist 16 %</tspan></text><text
       xml:space="preserve"
       style="font-style:normal;font-variant:normal;font-weight:normal;font-stretch:normal;font-size:4.2333298px;line-height:125%;font-family:Crimson;-inkscape-font-specification:'Crimson, Normal';font-variant-ligatures:normal;font-variant-caps:normal;font-variant-numeric:normal;font-variant-east-asian:normal;letter-spacing:0px;word-spacing:0px;fill:#000000;stroke:#000000;stroke-width:0.03527778;stroke-linecap:butt;stroke-linejoin:miter;stroke-opacity:1;stroke-dasharray:none;fill-opacity:1"
       x="9.9351683"
       y="147.76277"
       id="text15221"><tspan
         sodipodi:role="line"
         id="tspan1160"
         x="9.9351683"
         y="147.76277">+)    I tillegg kommer 25 prosent som betalte innen</tspan><tspan
         sodipodi:role="line"
         id="tspan1162"
         x="9.9351683"
         y="153.05443">        10 dager, men som falt fra i trinn 1 og 2.</tspan><tspan
         sodipodi:role="line"
         id="tspan1164"
         x="9.9351683"
         y="158.3461">++)  Kjøpere som «ikke var helt fornøyd».</tspan><tspan
         sodipodi:role="line"
         id="tspan1166"
         x="9.9351683"
         y="163.63776">+++ Kjøpere som «vurderte avbestilling».</tspan></text><text
       xml:space="preserve"
       style="font-style:normal;font-variant:normal;font-weight:normal;font-stretch:normal;font-size:4.2333298px;line-height:125%;font-family:Crimson;-inkscape-font-specification:'Crimson, Normal';font-variant-ligatures:normal;font-variant-caps:normal;font-variant-numeric:normal;font-variant-east-asian:normal;letter-spacing:0px;word-spacing:0px;fill:#000000;stroke:#000000;stroke-width:0.03527778;stroke-linecap:butt;stroke-linejoin:miter;stroke-opacity:1;stroke-dasharray:none;fill-opacity:1"
       x="150.86754"
       y="82.528603"
       id="text15227"><tspan
         sodipodi:role="line"
         id="tspan1451"
         x="150.86754"
         y="82.528603">14 %</tspan></text><text
       xml:space="preserve"
       style="font-style:normal;font-variant:normal;font-weight:normal;font-stretch:normal;font-size:4.2333298px;line-height:125%;font-family:Crimson;-inkscape-font-specification:'Crimson, Normal';font-variant-ligatures:normal;font-variant-caps:normal;font-variant-numeric:normal;font-variant-east-asian:normal;letter-spacing:0px;word-spacing:0px;fill:#000000;stroke:#000000;stroke-width:0.03527778;stroke-linecap:butt;stroke-linejoin:miter;stroke-opacity:1;stroke-dasharray:none;fill-opacity:1"
       x="173.07442"
       y="79.094109"
       id="text15239"><tspan
         sodipodi:role="line"
         id="tspan1327"
         x="173.07442"
         y="79.094109">Trinn 5</tspan><tspan
         sodipodi:role="line"
         id="tspan1329"
         x="173.07442"
         y="84.385773">n=31</tspan></text><text
       xml:space="preserve"
       style="font-style:normal;font-variant:normal;font-weight:normal;font-stretch:normal;font-size:4.2333298px;line-height:125%;font-family:Crimson;-inkscape-font-specification:'Crimson, Normal';font-variant-ligatures:normal;font-variant-caps:normal;font-variant-numeric:normal;font-variant-east-asian:normal;letter-spacing:0px;word-spacing:0px;fill:#000000;stroke:#000000;stroke-width:0.03527778;stroke-linecap:butt;stroke-linejoin:miter;stroke-opacity:1;stroke-dasharray:none;fill-opacity:1"
       x="173.07442"
       y="92.894104"
       id="text15245"><tspan
         sodipodi:role="line"
         id="tspan1323"
         x="173.07442"
         y="92.894104">Trinn 4</tspan><tspan
         sodipodi:role="line"
         id="tspan1325"
         x="173.07442"
         y="98.185768">n=31 ++)</tspan></text><text
       xml:space="preserve"
       style="font-style:normal;font-variant:normal;font-weight:normal;font-stretch:normal;font-size:4.2333298px;line-height:125%;font-family:Crimson;-inkscape-font-specification:'Crimson, Normal';font-variant-ligatures:normal;font-variant-caps:normal;font-variant-numeric:normal;font-variant-east-asian:normal;letter-spacing:0px;word-spacing:0px;fill:#000000;stroke:#000000;stroke-width:0.03527778;stroke-linecap:butt;stroke-linejoin:miter;stroke-opacity:1;stroke-dasharray:none;fill-opacity:1"
       x="173.07442"
       y="105.3941"
       id="text15251"><tspan
         sodipodi:role="line"
         id="tspan1319"
         x="173.07442"
         y="105.3941">Trinn 3</tspan><tspan
         sodipodi:role="line"
         id="tspan1321"
         x="173.07442"
         y="110.68576">n=264</tspan></text><rect
       style="fill:none;stroke:#000000;stroke-width:0.5;stroke-linejoin:round;stroke-miterlimit:2;stroke-dasharray:none;stroke-dashoffset:0"
       id="rect1940-3"
       width="75.054787"
       height="11.429784"
       x="24.910109"
       y="114.28511" /><rect
       style="fill:none;stroke:#000000;stroke-width:0.5;stroke-linejoin:round;stroke-miterlimit:2;stroke-dasharray:2.00001, 2.00001;stroke-dashoffset:0"
       id="rect1942-6"
       width="67.969666"
       height="11.219667"
       x="100.64017"
       y="114.39017" /><text
       xml:space="preserve"
       style="font-style:normal;font-variant:normal;font-weight:normal;font-stretch:normal;font-size:4.2333298px;line-height:125%;font-family:Crimson;-inkscape-font-specification:'Crimson, Normal';font-variant-ligatures:normal;font-variant-caps:normal;font-variant-numeric:normal;font-variant-east-asian:normal;letter-spacing:0px;word-spacing:0px;fill:#000000;stroke:#000000;stroke-width:0.03527778;stroke-linecap:butt;stroke-linejoin:miter;stroke-opacity:1;stroke-dasharray:none;fill-opacity:1"
       x="29.29969"
       y="118.95142"
       id="text15203-7"><tspan
         sodipodi:role="line"
         id="tspan1307"
         x="29.29969"
         y="118.95142">44 % avgir minst to feil-</tspan><tspan
         sodipodi:role="line"
         id="tspan1309"
         x="29.29969"
         y="124.24309">aktige lovkunnskapssvar</tspan></text><text
       xml:space="preserve"
       style="font-style:normal;font-variant:normal;font-weight:normal;font-stretch:normal;font-size:4.2333298px;line-height:125%;font-family:Crimson;-inkscape-font-specification:'Crimson, Normal';font-variant-ligatures:normal;font-variant-caps:normal;font-variant-numeric:normal;font-variant-east-asian:normal;letter-spacing:0px;word-spacing:0px;fill:#000000;stroke:#000000;stroke-width:0.03527778;stroke-linecap:butt;stroke-linejoin:miter;stroke-opacity:1;stroke-dasharray:none;fill-opacity:1"
       x="173.07442"
       y="118.88527"
       id="text15251-5"><tspan
         sodipodi:role="line"
         id="tspan1311"
         x="173.07442"
         y="118.88527">Trinn 2</tspan><tspan
         sodipodi:role="line"
         id="tspan1313"
         x="173.07442"
         y="124.17693">n=264</tspan></text><text
       xml:space="preserve"
       style="font-style:normal;font-variant:normal;font-weight:normal;font-stretch:normal;font-size:4.2333298px;line-height:125%;font-family:Crimson;-inkscape-font-specification:'Crimson, Normal';font-variant-ligatures:normal;font-variant-caps:normal;font-variant-numeric:normal;font-variant-east-asian:normal;letter-spacing:0px;word-spacing:0px;fill:#000000;stroke:#000000;stroke-width:0.03527778;stroke-linecap:butt;stroke-linejoin:miter;stroke-opacity:1;stroke-dasharray:none;fill-opacity:1"
       x="173.07442"
       y="131.3941"
       id="text15257"><tspan
         sodipodi:role="line"
         id="tspan1315"
         x="173.07442"
         y="131.3941">Trinn 1</tspan><tspan
         sodipodi:role="line"
         id="tspan1317"
         x="173.07442"
         y="136.68576">n=264 +++)</tspan></text><text
       xml:space="preserve"
       style="font-style:normal;font-variant:normal;font-weight:normal;font-stretch:normal;font-size:4.2333298px;line-height:125%;font-family:Crimson;-inkscape-font-specification:'Crimson, Normal';font-variant-ligatures:normal;font-variant-caps:normal;font-variant-numeric:normal;font-variant-east-asian:normal;letter-spacing:0px;word-spacing:0px;fill:#000000;stroke:#000000;stroke-width:0.03527778;stroke-linecap:butt;stroke-linejoin:miter;stroke-opacity:1;stroke-dasharray:none;fill-opacity:1"
       x="125.13836"
       y="95.808395"
       id="text15263"><tspan
         sodipodi:role="line"
         id="tspan1343"
         x="125.13836"
         y="95.808395">17 %</tspan></text></g></svg>
